<?xml version="1.0" encoding="iso-8859-1"?>
<!-- Generator: Adobe Illustrator 19.0.0, SVG Export Plug-In . SVG Version: 6.00 Build 0)  -->
<svg version="1.1" id="Capa_1" xmlns="http://www.w3.org/2000/svg" xmlns:xlink="http://www.w3.org/1999/xlink" x="0px" y="0px"
	 viewBox="0 0 512 512" style="enable-background:new 0 0 512 512;" xml:space="preserve">
<g>
	<g>
		<path d="M463.903,301.272v-51.102c0-14.072-9.461-26.561-23.007-30.37l-73.187-20.584v-72.849c0-2.279,0.888-4.421,2.499-6.033
			l11.336-11.337c2.929-2.929,2.929-7.678,0-10.606c-2.929-2.93-7.678-2.929-10.606,0l-11.336,11.337
			c-4.445,4.445-6.893,10.354-6.893,16.64v68.63l-17.064-4.8V47.065h0.516c4.142,0,7.5-3.358,7.5-7.5c0-4.142-3.358-7.5-7.5-7.5
			h-248.5c-17.396,0-31.548,14.152-31.548,31.548V209.36c-15.204,7.626-29.211,17.674-41.371,29.834
			c-2.929,2.929-2.929,7.678,0,10.606c1.464,1.465,3.384,2.197,5.303,2.197s3.839-0.732,5.303-2.197
			c13.46-13.46,29.419-24.057,46.797-31.293v18.693C29.483,257.91,0,301.673,0,352.194c0,70.438,57.305,127.742,127.742,127.742
			c65.186,0,119.117-49.08,126.798-112.226h17.266c-0.229,7.951,2.598,15.546,8.089,21.573c6.074,6.666,14.729,10.489,23.747,10.489
			h18.267c7.435,45.405,46.938,80.164,94.414,80.164c52.757,0,95.677-42.92,95.677-95.677
			C512,348.811,492.622,317.803,463.903,301.272z M127.742,464.936C65.576,464.936,15,414.36,15,352.194
			s50.576-112.742,112.742-112.742s112.742,50.576,112.742,112.742S189.908,464.936,127.742,464.936z M320.645,384.772h-17.003
			c-4.807-0.001-9.421-2.039-12.659-5.592c-2.931-3.217-4.379-7.27-4.152-11.47h33.814V384.772z M320.646,352.71h-33.104
			c0.021-5.727-0.258-11.422-0.84-17.064h33.944V352.71z M328.143,224.449c-4.142,0-7.5,3.358-7.5,7.5v88.696H284.42
			c-6.124-30.531-21.104-58.877-43.678-81.452c-2.929-2.93-7.678-2.929-10.606,0c-2.929,2.929-2.929,7.678,0,10.606
			c27.486,27.487,42.561,64.416,42.406,102.91h-17.065c0.001-0.172,0.007-0.344,0.007-0.516
			c0-70.437-57.305-127.741-127.742-127.741c-14.186,0-27.837,2.328-40.597,6.615v-17.862c8.407-2.462,17.052-4.174,25.834-5.068
			c32.545-3.313,65.542,4.535,92.901,22.104c3.486,2.237,8.125,1.228,10.364-2.258c2.238-3.485,1.227-8.125-2.258-10.364
			c-30.204-19.395-66.616-28.06-102.526-24.404c-13.867,1.412-27.431,4.658-40.346,9.562V63.613c0-9.125,7.423-16.548,16.548-16.548
			h232.984v17.064H199.887c-4.142,0-7.5,3.358-7.5,7.5v69.96c0,14.071,9.46,26.56,23.006,30.37l137.316,38.62v69.47
			c0,4.142,3.358,7.5,7.5,7.5c4.142,0,7.5-3.358,7.5-7.5v-65.251l69.125,19.441c7.106,1.999,12.068,8.549,12.068,15.931v44.126
			c-10.174-3.696-21.146-5.715-32.581-5.715c-33.861,0-63.668,17.682-80.678,44.296V231.949
			C335.643,227.808,332.285,224.449,328.143,224.449z M320.645,79.129v106.85l-101.19-28.46c-7.105-1.999-12.068-8.549-12.068-15.93
			v-62.46H320.645z M416.323,464.936c-44.486,0-80.678-36.192-80.678-80.677c0-44.486,36.192-80.678,80.678-80.678
			c44.485,0,80.677,36.192,80.677,80.678C497,428.744,460.808,464.936,416.323,464.936z"/>
	</g>
</g>
<g>
	<g>
		<path d="M183.705,321.918c-1.972-3.641-6.523-4.996-10.166-3.023c-3.643,1.972-4.997,6.523-3.024,10.166
			c10.156,18.759,6.703,42.407-8.398,57.508c-18.955,18.954-49.795,18.954-68.75,0c-18.954-18.954-18.954-49.795,0-68.75
			c15.099-15.098,38.745-18.553,57.5-8.403c3.644,1.972,8.195,0.617,10.166-3.026c1.972-3.643,0.617-8.194-3.026-10.166
			c-24.548-13.286-55.49-8.768-75.246,10.988c-24.802,24.803-24.802,65.16,0,89.962c12.401,12.401,28.691,18.602,44.981,18.602
			c16.29,0,32.58-6.2,44.981-18.602C192.482,377.414,196.998,346.467,183.705,321.918z"/>
	</g>
</g>
<g>
	<g>
		<path d="M460.634,366.896c-1.509-3.857-5.86-5.76-9.718-4.251c-3.857,1.51-5.761,5.86-4.251,9.717
			c4.721,12.064,1.854,25.776-7.304,34.934c-6.154,6.154-14.336,9.543-23.038,9.543c-8.703,0-16.884-3.389-23.038-9.543
			s-9.543-14.335-9.543-23.038c0-8.702,3.389-16.884,9.543-23.038c9.163-9.163,22.88-12.028,34.949-7.299
			c3.856,1.511,8.208-0.39,9.719-4.247s-0.39-8.208-4.247-9.719c-17.62-6.905-37.649-2.721-51.028,10.658
			c-8.987,8.987-13.937,20.935-13.937,33.644c0,12.709,4.95,24.658,13.937,33.645s20.935,13.937,33.645,13.937
			c12.709,0,24.658-4.95,33.645-13.937C463.34,404.53,467.527,384.509,460.634,366.896z"/>
	</g>
</g>
<g>
	<g>
		<path d="M167.823,64.129h-32.064c-4.142,0-7.5,3.358-7.5,7.5v43.595c0,10.818,7.33,20.206,17.825,22.83l19.92,4.98
			c0.602,0.15,1.212,0.224,1.819,0.224c1.656,0,3.284-0.548,4.616-1.588c1.82-1.421,2.884-3.602,2.884-5.912V71.629
			C175.323,67.488,171.965,64.129,167.823,64.129z M160.323,126.152l-10.602-2.65c-3.805-0.952-6.462-4.355-6.462-8.278V79.129
			h17.064V126.152z"/>
	</g>
</g>
<g>
</g>
<g>
</g>
<g>
</g>
<g>
</g>
<g>
</g>
<g>
</g>
<g>
</g>
<g>
</g>
<g>
</g>
<g>
</g>
<g>
</g>
<g>
</g>
<g>
</g>
<g>
</g>
<g>
</g>
</svg>
