<?xml version="1.0" standalone="no"?>
<!DOCTYPE svg PUBLIC "-//W3C//DTD SVG 1.1//EN" "http://www.w3.org/Graphics/SVG/1.1/DTD/svg11.dtd" >
<!--
2017-9-11: Created with FontForge (http://fontforge.org)
-->
<svg xmlns="http://www.w3.org/2000/svg" xmlns:xlink="http://www.w3.org/1999/xlink" version="1.1">
<metadata>
Created by FontForge 20160405 at Mon Sep 11 12:13:01 2017
 By Apache
Copyright (c) 2017, Apache
</metadata>
<defs>
<font id="Flaticon" horiz-adv-x="512" >
  <font-face 
    font-family="Flaticon"
    font-weight="400"
    font-stretch="normal"
    units-per-em="512"
    panose-1="2 0 5 3 0 0 0 0 0 0"
    ascent="448"
    descent="-64"
    bbox="-0.012207 -64.0168 512 448.012"
    underline-thickness="25.6"
    underline-position="-51.2"
    unicode-range="U+0020-F10B"
  />
    <missing-glyph />
    <glyph glyph-name="space" unicode=" " horiz-adv-x="200" 
 />
    <glyph glyph-name="uniF102" unicode="&#xf102;" 
d="M494.479 309.443c1.76562 -1.83496 2.75293 -4.28223 2.75293 -6.82812v-327.265c0 -21.6973 -17.7012 -39.3506 -39.458 -39.3506h-295.238c-21.7568 0 -39.458 17.6631 -39.458 39.373v88.627h-78.7871c-16.2783 0 -29.5215 13.2393 -29.5215 29.5117v147.744
c0 16.2744 13.2432 29.5127 29.5215 29.5127h78.7871v137.789c0 21.748 17.7012 39.4424 39.458 39.4424h194.41c2.67578 0 5.2373 -1.08984 7.09473 -3.01758zM359.385 421.419v-111.265h107.079zM44.29 83.6924h265.882c5.41895 0 9.82812 4.4043 9.82812 9.81934v147.744
c0 5.41504 -4.4082 9.82129 -9.82812 9.82129h-265.882c-5.41895 0 -9.82812 -4.40625 -9.82812 -9.82129v-147.744c0 -5.41504 4.4082 -9.81934 9.82812 -9.81934zM477.538 -24.6494v315.111h-128c-5.4375 0 -9.8457 4.4082 -9.8457 9.8457v128h-177.157
c-10.8994 0 -19.7666 -8.8584 -19.7666 -19.75v-137.789h167.403c16.2783 0 29.5215 -13.2383 29.5215 -29.5127v-147.744c0 -16.2725 -13.2432 -29.5117 -29.5215 -29.5117h-167.403v-88.6279c0 -10.8525 8.86719 -19.6797 19.7666 -19.6797h295.237
c10.8984 0 19.7656 8.81836 19.7656 19.6582zM132.481 198.106c3.26855 -4.25 4.90332 -9.74023 4.9043 -16.4717c0 -5.19141 -0.941406 -9.55762 -2.82715 -13.0957c-1.88477 -3.53809 -4.27832 -6.31738 -7.18262 -8.33594
c-2.9043 -2.02051 -5.85645 -3.35645 -8.85645 -4.00977c-4.07617 -0.808594 -9.98047 -1.21191 -17.7119 -1.21191h-11.1348v-31.9043h-17.0771v84.5771h27.4043c10.3848 0 17.1543 -0.422852 20.3076 -1.26953c4.84668 -1.26855 8.9043 -4.02832 12.1738 -8.27832z
M117.856 174.827c1.28711 1.88477 1.93262 4.07715 1.93164 6.57715c0 3.07617 -0.904297 5.61426 -2.71191 7.61426s-4.0957 3.25 -6.86523 3.75c-2.03809 0.385742 -6.13379 0.577148 -12.2881 0.577148h-8.25v-24h9.3457c6.73145 0 11.2305 0.442383 13.5 1.32715
c2.27051 0.884766 4.0498 2.26953 5.33789 4.1543zM219.481 184.548c1.8457 -5.4043 2.76855 -12.0664 2.76855 -19.9902c0 -6.96094 -0.865234 -12.9609 -2.5957 -18c-2.11621 -6.15332 -5.13574 -11.1338 -9.05859 -14.9414
c-2.96094 -2.88477 -6.96094 -5.13477 -12 -6.75c-3.76855 -1.19336 -8.80664 -1.78906 -15.1143 -1.78906h-32.1357v84.5771h31.2119c7.03809 0 12.4043 -0.538086 16.0967 -1.61523c4.96094 -1.46191 9.21191 -4.05762 12.75 -7.78906s6.23047 -8.29785 8.07715 -13.7021z
M202.865 149.817c1.15332 3.78906 1.73047 8.95117 1.73047 15.4893c0 6.53906 -0.577148 11.5586 -1.73047 15.0586c-1.1543 3.5 -2.76953 6.22949 -4.84668 8.19141c-2.07617 1.96191 -4.71191 3.28906 -7.90332 3.98145
c-2.38379 0.539062 -7.05859 0.807617 -14.0195 0.807617h-7.67285v-56.0186v0h12.75c4.76953 0 8.21191 0.268555 10.3271 0.807617c2.76855 0.692383 5.06738 1.86523 6.89355 3.51953c1.82715 1.65234 3.31738 4.37402 4.47168 8.16309zM294.827 193.346h-40.9043
v-20.0186h35.3086v-14.3086h-35.3086v-35.9414h-17.0771v84.5771h57.9814v-14.3086z" />
    <glyph glyph-name="uniF10B" unicode="&#xf10b;" 
d="M344.774 366.591l161.812 -161.827c7.21875 -6.95898 7.21875 -18.5684 0 -25.543l-161.812 -161.812c-6.95801 -7.21875 -18.584 -7.21875 -25.8027 0c-6.97559 6.95898 -6.97559 18.584 0 25.8037l130.837 130.593h-431.745
c-10.0645 0 -18.0635 8.25977 -18.0635 18.3242s7.99902 18.0645 18.0635 18.0801h431.745l-130.837 130.838c-6.97559 6.95898 -6.97559 18.5674 0 25.543c7.21875 7.21875 18.8281 7.21875 25.8027 0z" />
    <glyph glyph-name="uniF103" unicode="&#xf103;" 
d="M463.903 146.728c28.7188 -16.5303 48.0967 -47.5381 48.0967 -82.9863c0 -52.7568 -42.9199 -95.6768 -95.6768 -95.6768c-47.4766 0 -86.9795 34.7588 -94.4141 80.1631h-18.2676c-9.01758 0 -17.6729 3.82324 -23.7471 10.4893
c-5.49023 6.02734 -8.31738 13.6221 -8.08887 21.5732h-17.2656c-7.68066 -63.1465 -61.6123 -112.226 -126.798 -112.226c-70.4375 0 -127.742 57.3037 -127.742 127.741c0 50.5215 29.4834 94.2842 72.1445 114.994v18.6934
c-17.3779 -7.23633 -33.3369 -17.833 -46.7969 -31.293c-1.46387 -1.46484 -3.38379 -2.19727 -5.30273 -2.19727s-3.83887 0.732422 -5.30273 2.19727c-2.92871 2.92773 -2.92871 7.67676 0 10.6055c12.1602 12.1602 26.167 22.208 41.3711 29.834v145.747
c0 17.3965 14.1514 31.5479 31.5479 31.5479h248.5c4.1416 0 7.5 -3.35742 7.5 -7.5c0 -4.1416 -3.3584 -7.5 -7.5 -7.5h-0.516602v-143.133l17.0645 -4.7998v68.6299c0 6.28613 2.44824 12.1953 6.89258 16.6406l11.3369 11.3369
c2.92773 2.92871 7.67676 2.92969 10.6055 0c2.92871 -2.92871 2.92871 -7.67773 0 -10.6064l-11.3359 -11.3369c-1.61133 -1.6123 -2.49902 -3.75391 -2.49902 -6.0332v-72.8486l73.1875 -20.584c13.5459 -3.80957 23.0068 -16.2979 23.0068 -30.3701v-51.1025z
M127.742 -16.9355c62.166 0 112.742 50.5752 112.742 112.741s-50.5762 112.742 -112.742 112.742s-112.742 -50.5762 -112.742 -112.742s50.5762 -112.741 112.742 -112.741zM320.645 63.2275v17.0625h-33.8135c-0.227539 -4.2002 1.2207 -8.25293 4.15234 -11.4697
c3.2373 -3.55371 7.85156 -5.5918 12.6582 -5.59277h17.0029zM320.646 95.29v17.0635h-33.9443c0.582031 -5.6416 0.861328 -11.3369 0.839844 -17.0635h33.1045zM328.143 223.551c4.14258 0 7.5 -3.3584 7.5 -7.5v-100.928
c17.0107 26.6143 46.8174 44.2959 80.6787 44.2959c11.4346 0 22.4062 -2.01855 32.5811 -5.71484v44.126c0 7.38184 -4.96191 13.9316 -12.0684 15.9307l-69.125 19.4414v-65.251c0 -4.14258 -3.3584 -7.5 -7.5 -7.5s-7.5 3.35742 -7.5 7.5v69.4697l-137.316 38.6201
c-13.5459 3.80957 -23.0059 16.2988 -23.0059 30.3701v69.96c0 4.1416 3.3584 7.5 7.5 7.5h120.76v17.0635h-232.984c-9.125 0 -16.5479 -7.42285 -16.5479 -16.5479v-139.164c12.915 4.9043 26.4785 8.15039 40.3457 9.5625
c35.9102 3.65625 72.3223 -5.00879 102.526 -24.4043c3.48438 -2.23926 4.49609 -6.87891 2.25781 -10.3643c-2.23926 -3.48535 -6.87793 -4.49414 -10.3643 -2.25781c-27.3584 17.5693 -60.3555 25.417 -92.9014 22.1045
c-8.78125 -0.894531 -17.4268 -2.60645 -25.834 -5.06836v-17.8623c12.7607 4.28711 26.4111 6.61523 40.5977 6.61523c70.4365 0 127.742 -57.3037 127.742 -127.741c0 -0.171875 -0.00683594 -0.34375 -0.0078125 -0.515625h17.0654
c0.155273 38.4941 -14.9199 75.4229 -42.4062 102.91c-2.92871 2.92773 -2.92871 7.67676 0 10.6055c2.92871 2.92969 7.67773 2.93066 10.6064 0c22.5742 -22.5742 37.5537 -50.9209 43.6777 -81.4512h36.2227v88.6953c0 4.14258 3.3584 7.5 7.5 7.5zM320.645 368.871
h-113.258v-62.46c0 -7.38086 4.96289 -13.9307 12.0684 -15.9297l101.189 -28.46v106.85zM416.323 -16.9355c44.4844 0 80.6768 36.1914 80.6768 80.6768s-36.1924 80.6777 -80.6768 80.6777c-44.4863 0 -80.6787 -36.1924 -80.6787 -80.6777
s36.1924 -80.6768 80.6787 -80.6768zM183.705 126.082c13.293 -24.5488 8.77734 -55.4961 -10.9824 -75.2559c-12.4004 -12.4023 -28.6904 -18.6025 -44.9805 -18.6025s-32.5801 6.20117 -44.9814 18.6025c-24.8018 24.8018 -24.8018 65.1592 0 89.9619
c19.7559 19.7559 50.6982 24.2734 75.2461 10.9883c3.64355 -1.97266 4.99805 -6.52344 3.02637 -10.166c-1.97168 -3.64355 -6.52246 -4.99805 -10.166 -3.02637c-18.7549 10.1504 -42.4014 6.69531 -57.5 -8.40332c-18.9541 -18.9551 -18.9541 -49.7959 0 -68.75
c18.9551 -18.9541 49.7949 -18.9541 68.75 0c15.1006 15.1016 18.5537 38.749 8.39746 57.5088c-1.97266 3.64258 -0.618164 8.19336 3.02441 10.166s8.19434 0.617188 10.166 -3.02344zM460.634 81.1035c6.89355 -17.6123 2.70605 -37.6338 -10.666 -51.0059
c-8.98633 -8.98633 -20.9355 -13.9365 -33.6445 -13.9365c-12.71 0 -24.6582 4.9502 -33.6455 13.9365c-8.98633 8.9873 -13.9365 20.9365 -13.9365 33.6455s4.9502 24.6572 13.9365 33.6436c13.3789 13.3789 33.4082 17.5635 51.0283 10.6582
c3.85742 -1.51074 5.75781 -5.8623 4.24707 -9.71875c-1.51074 -3.85742 -5.86328 -5.75781 -9.71875 -4.24707c-12.0693 4.72852 -25.7861 1.86426 -34.9492 -7.29883c-6.1543 -6.1543 -9.54297 -14.3359 -9.54297 -23.0381c0 -8.70312 3.38867 -16.8838 9.54297 -23.0381
s14.335 -9.54297 23.0381 -9.54297c8.70215 0 16.8838 3.38867 23.0381 9.54297c9.15723 9.1582 12.0244 22.8701 7.30371 34.9336c-1.50977 3.85742 0.393555 8.20703 4.25098 9.71777c3.8584 1.50879 8.20898 -0.394531 9.71777 -4.25195zM167.823 383.871
c4.1416 0 7.5 -3.35938 7.5 -7.5v-64.1289c0 -2.31055 -1.06445 -4.49121 -2.88379 -5.91211c-1.33203 -1.04004 -2.96094 -1.58789 -4.61621 -1.58789c-0.607422 0 -1.2168 0.0742188 -1.81934 0.223633l-19.9199 4.98047
c-10.4951 2.62402 -17.8252 12.0117 -17.8252 22.8301v43.5947c0 4.1416 3.3584 7.5 7.5 7.5h32.0645zM160.323 321.848v47.0234h-17.0645v-36.0947c0 -3.92383 2.65723 -7.32617 6.46191 -8.27832z" />
    <glyph glyph-name="uniF104" unicode="&#xf104;" 
d="M311.2 82.5h-248.2l-52 238.8h239.7v-19.7998h-214.2l43.4004 -199.2h216.399l119.9 334.7h84.7998v-20.9004h-70zM262.4 -53c-29.7002 0 -54.1006 24 -54.1006 54.2002s24.4004 54.2002 54.1006 54.2002c29.6992 0 54.0996 -24 54.0996 -54.2002
s-24.4004 -54.2002 -54.0996 -54.2002zM262.4 34.5996c-19.1006 0 -33.9004 -15.5996 -33.9004 -33.3994c0 -18.7998 14.7998 -33.4004 33.9004 -33.4004c19.0996 0 33.8994 15.6006 33.8994 33.4004c0 18.7998 -15.8994 33.3994 -33.8994 33.3994zM108.6 -53
c-29.6992 0 -54.0996 24 -54.0996 54.2002s24.4004 54.2002 54.0996 54.2002c29.7002 0 54.1006 -24 54.1006 -54.2002s-24.4004 -54.2002 -54.1006 -54.2002zM108.6 34.5996c-19.0996 0 -33.8994 -15.5996 -33.8994 -33.3994c0 -18.7998 14.7998 -33.4004 33.8994 -33.4004
c19.1006 0 33.9004 15.6006 33.9004 33.4004c-1 18.7998 -15.9004 33.3994 -33.9004 33.3994z" />
    <glyph glyph-name="uniF100" unicode="&#xf100;" 
d="M494.479 309.443c1.76562 -1.83496 2.75293 -4.28223 2.75293 -6.82812v-327.265c0 -21.6973 -17.7012 -39.3506 -39.458 -39.3506h-295.238c-21.7568 0 -39.458 17.6631 -39.458 39.373v88.627h-78.7871c-16.2783 0 -29.5215 13.2393 -29.5215 29.5117v147.744
c0 16.2744 13.2432 29.5127 29.5215 29.5127h78.7871v137.789c0 21.748 17.7012 39.4424 39.458 39.4424h194.41c2.67578 0 5.2373 -1.08984 7.09473 -3.01758zM359.385 421.419v-111.265h107.079zM44.29 83.6924h265.881c5.41895 0 9.8291 4.4043 9.8291 9.81934v147.744
c0 5.41504 -4.41016 9.82129 -9.8291 9.82129h-265.881c-5.41895 0 -9.82812 -4.40625 -9.82812 -9.82129v-147.744c0 -5.41504 4.4082 -9.81934 9.82812 -9.81934zM477.538 -24.6494v315.111h-128c-5.4375 0 -9.8457 4.4082 -9.8457 9.8457v128h-177.157
c-10.8994 0 -19.7666 -8.8584 -19.7666 -19.75v-137.789h167.401c16.2793 0 29.5225 -13.2383 29.5225 -29.5127v-147.744c0 -16.2725 -13.2432 -29.5117 -29.5225 -29.5117h-167.401v-88.6279c0 -10.8525 8.86719 -19.6797 19.7666 -19.6797h295.237
c10.8984 0 19.7656 8.81836 19.7656 19.6582zM284.645 161.181c2.25 -3.63281 3.375 -8.12305 3.37793 -13.4678c0 -4.84668 -1.34766 -9.38574 -4.04004 -13.6152c-2.69336 -4.23145 -6.49805 -7.37793 -11.4219 -9.43262
c-4.92285 -2.05762 -11.0596 -3.08691 -18.4043 -3.08691c-10.6934 0 -18.9043 2.47168 -24.6348 7.41211c-5.73145 4.94141 -9.15527 12.1445 -10.2705 21.6064l16.6162 1.61523c1.00195 -5.57812 3.03027 -9.67383 6.08691 -12.2881
c3.05664 -2.61719 7.18164 -3.92383 12.374 -3.92383c5.50098 0 9.64355 1.16406 12.4326 3.49023c2.78809 2.32617 4.18262 5.04785 4.18262 8.16211c0 2.00195 -0.585938 3.70117 -1.76074 5.10742c-1.17188 1.40332 -3.21875 2.62402 -6.14355 3.66309
c-1.99805 0.691406 -6.55664 1.92188 -13.6709 3.69238c-9.15527 2.26855 -15.5771 5.05762 -19.2695 8.36328c-5.19336 4.65527 -7.79102 10.3291 -7.79102 17.0195c0 4.30762 1.22363 8.33789 3.66504 12.0889c2.44238 3.74902 5.96191 6.60449 10.5586 8.56641
c4.5957 1.96289 10.1436 2.94141 16.6445 2.94141c10.6143 0 18.6035 -2.32617 23.9707 -6.98047c5.36523 -4.65234 8.18164 -10.8643 8.44922 -18.6328l-17.0762 -0.750977c-0.730469 4.34668 -2.29785 7.47266 -4.7002 9.37598
c-2.4043 1.90137 -6.01172 2.85449 -10.8184 2.85449c-4.95996 0 -8.84473 -1.01855 -11.6533 -3.05664c-1.80957 -1.30762 -2.71289 -3.05859 -2.71289 -5.25098c0 -1.99805 0.84668 -3.71191 2.54004 -5.13574c2.1543 -1.80664 7.38379 -3.69141 15.6924 -5.65332
c8.30762 -1.96191 14.4512 -3.99023 18.4316 -6.08496c3.98047 -2.09766 7.0957 -4.96191 9.3457 -8.59863zM168.943 137.327h42.4619v-14.25h-59.541v83.8838h17.0791v-69.6338zM113.73 166.577l28.9033 -43.5h-20.5957l-18.749 29.251l-18.8086 -29.251h-20.4805
l28.9033 44.1348l-26.1904 40.4414h19.96l16.9629 -27.1729l16.6152 27.1729h19.7881z" />
    <glyph glyph-name="uniF106" unicode="&#xf106;" 
d="M7.25 405.281c-9.59961 9.59961 -9.59961 25.5771 0 35.5127c9.93555 9.60059 25.5781 9.60059 35.5137 0l213.103 -213.46l213.46 213.46c9.59961 9.60059 25.5771 9.60059 35.1553 0c9.93555 -9.93555 9.93555 -25.9355 0 -35.5127l-213.103 -213.125l213.103 -213.46
c9.93555 -9.59961 9.93555 -25.5771 0 -35.5127c-9.60059 -9.60059 -25.5781 -9.60059 -35.1553 0l-213.46 213.46l-213.103 -213.46c-9.93555 -9.60059 -25.5781 -9.60059 -35.5137 0c-9.59961 9.93555 -9.59961 25.9355 0 35.5127l213.103 213.46z" />
    <glyph glyph-name="uniF109" unicode="&#xf109;" 
d="M430.773 103.089l-161.851 -161.868c-7.22168 -6.97754 -18.835 -6.97754 -25.8125 0l-161.867 161.868c-6.97852 7.2207 -6.97852 18.5898 0 25.8115c7.2207 6.97754 18.5898 6.97754 25.8115 0l130.623 -130.883v431.912c0 10.0684 8.2627 18.0703 18.3301 18.0703
c10.0684 0 18.0703 -8.00195 18.0703 -18.0703v-431.912l130.883 130.883c6.96191 6.97754 18.5908 6.97754 25.8125 0c6.97754 -7.22168 6.97754 -18.5908 0 -25.8115z" />
    <glyph glyph-name="uniF107" unicode="&#xf107;" 
d="M256.094 448c44.4678 0 85.0488 -18.1543 114.142 -47.4336c29.2803 -29.2803 47.4346 -69.6738 47.4346 -114.329c0 -45.2158 -29.0938 -99.6895 -54.4736 -147.321c-7.78711 -14.4531 -15.2002 -28.3574 -21.1201 -40.7676l-74.3086 -154.735
c-3.15137 -6.49121 -10.9268 -9.26953 -17.418 -6.11719c-2.77832 1.2959 -4.82129 3.52539 -6.11719 6.11719v0l-74.3086 154.735c-5.93066 12.4102 -13.3447 26.3145 -20.9443 40.7676c-25.5674 47.6201 -54.6602 102.105 -54.6602 147.321
c0 44.6553 18.1533 85.0605 47.4336 114.329c29.291 29.2793 69.6855 47.4336 114.341 47.4336v0zM256.094 365.543c21.8662 0 41.6895 -8.89648 55.9561 -23.1631c14.2666 -14.2656 23.1621 -34.1016 23.1621 -56.1426c0 -21.8662 -8.89551 -41.6904 -23.1621 -55.9678
c-14.2666 -14.2666 -34.0898 -23.1631 -55.9561 -23.1631c-21.8672 0 -41.6904 8.89648 -56.1436 23.1631c-14.2666 14.2656 -23.1621 34.1016 -23.1621 55.9678c0 22.0527 8.89551 41.877 23.1621 56.1426c14.4531 14.2666 34.2764 23.1631 56.1436 23.1631v0z
M293.522 323.841c-9.63184 9.63184 -22.7891 15.5625 -37.4287 15.5625c-14.8271 0 -27.9844 -5.93066 -37.6162 -15.5625c-9.63086 -9.63184 -15.5615 -22.7891 -15.5615 -37.6152c0 -14.6396 5.93066 -27.7969 15.5615 -37.4287
c9.63184 -9.63184 22.7891 -15.5625 37.6162 -15.5625c14.6396 0 27.7969 5.93066 37.4287 15.5625c9.63086 9.63184 15.5615 22.7891 15.5615 37.4287c0.0117188 14.8262 -5.91895 27.9834 -15.5615 37.6152v0zM351.895 382.027
c-24.6445 24.6445 -58.3721 39.8447 -95.8008 39.8447s-71.3438 -15.2002 -95.8018 -39.8447c-24.6455 -24.459 -39.8457 -58.373 -39.8457 -95.8018c0 -38.9111 27.4238 -90.0576 51.5088 -135.087c7.78711 -14.6396 15.2002 -28.7188 21.4922 -41.6895l62.6348 -130.265
l62.4473 130.265c6.30371 12.9707 13.7178 27.0498 21.4922 41.6895c24.085 45.0293 51.5088 96.1758 51.5088 135.087c0.0234375 37.4287 -15.1768 71.3428 -39.6357 95.8018v0z" />
    <glyph glyph-name="uniF105" unicode="&#xf105;" 
d="M507.516 -37.8887c5.90332 -5.90332 5.90332 -15.667 0 -21.5703c-2.95117 -3.06543 -6.9248 -4.54102 -10.7852 -4.54102c-3.85938 0 -7.83301 1.58984 -10.7842 4.54102l-124.425 124.424c-38.3711 -33.376 -88.4355 -53.584 -143.155 -53.584
c-120.337 0 -218.31 97.9727 -218.31 218.31s97.8594 218.31 218.31 218.31c120.337 0 218.31 -97.8594 218.31 -218.31c0 -54.7197 -20.207 -104.784 -53.584 -143.155zM30.5947 229.69c0 -103.535 84.2363 -187.771 187.658 -187.771
c103.535 0 187.657 84.3496 187.657 187.771s-84.1221 187.657 -187.657 187.657c-103.422 0 -187.658 -84.1221 -187.658 -187.657z" />
    <glyph glyph-name="uniF101" unicode="&#xf101;" 
d="M494.479 309.443c1.76562 -1.83496 2.75293 -4.28223 2.75293 -6.82812v-327.265c0 -21.6973 -17.7012 -39.3506 -39.458 -39.3506h-295.238c-21.7568 0 -39.458 17.6631 -39.458 39.373v88.627h-78.7871c-16.2783 0 -29.5215 13.2393 -29.5215 29.5117v147.744
c0 16.2744 13.2432 29.5127 29.5215 29.5127h78.7871v137.789c0 21.748 17.7012 39.4424 39.458 39.4424h194.41c2.67578 0 5.2373 -1.08984 7.09473 -3.01758zM359.385 421.419v-111.265h107.079zM44.29 83.6924h265.881c5.41895 0 9.8291 4.4043 9.8291 9.81934v147.744
c0 5.41504 -4.41016 9.82129 -9.8291 9.82129h-265.881c-5.41895 0 -9.82812 -4.40625 -9.82812 -9.82129v-147.744c0 -5.41504 4.4082 -9.81934 9.82812 -9.81934zM477.538 -24.6494v315.111h-128c-5.4375 0 -9.8457 4.4082 -9.8457 9.8457v128h-177.157
c-10.8994 0 -19.7666 -8.8584 -19.7666 -19.75v-137.789h167.401c16.2793 0 29.5225 -13.2383 29.5225 -29.5127v-147.744c0 -16.2725 -13.2432 -29.5117 -29.5225 -29.5117h-167.401v-88.6279c0 -10.8525 8.86719 -19.6797 19.7666 -19.6797h295.237
c10.8984 0 19.7656 8.81836 19.7656 19.6582zM130.826 184.549c1.8457 -5.40527 2.76855 -12.0684 2.76953 -19.9902c0 -6.96387 -0.863281 -12.9619 -2.59375 -18.001c-2.11719 -6.15332 -5.13477 -11.1338 -9.05859 -14.9414
c-2.96094 -2.88379 -6.96094 -5.13379 -12 -6.74902c-3.76855 -1.19531 -8.80762 -1.79004 -15.1162 -1.79004h-32.1328v84.5762h31.21c7.04004 0 12.4033 -0.536133 16.0957 -1.61523c4.96191 -1.46191 9.21289 -4.05664 12.75 -7.78809
c3.54004 -3.73242 6.23047 -8.29785 8.07617 -13.7012zM114.21 149.817c1.15527 3.78809 1.73438 8.95117 1.7334 15.4902c0 6.54004 -0.579102 11.5596 -1.7334 15.0576c-1.15234 3.50098 -2.76855 6.23242 -4.84375 8.19434
c-2.07715 1.95898 -4.71094 3.28613 -7.9043 3.98047c-2.38477 0.539062 -7.05664 0.807617 -14.0205 0.807617h-7.67285v-56.0195h12.75c4.76855 0 8.21289 0.267578 10.3262 0.806641c2.76953 0.691406 5.06836 1.86621 6.89551 3.52051
c1.82617 1.65332 3.31738 4.37305 4.46973 8.16211zM294.097 154.174l16.5576 -5.25098c-2.53809 -9.23047 -6.75977 -16.0859 -12.6621 -20.5654c-5.90527 -4.48242 -13.3965 -6.72266 -22.4707 -6.72266c-11.2324 0 -20.4639 3.83691 -27.6924 11.5098
c-7.23242 7.67383 -10.8477 18.1641 -10.8477 31.4717c0 14.0771 3.63574 25.0078 10.9043 32.7969s16.8262 11.6826 28.6738 11.6826c10.3467 0 18.749 -3.05762 25.2119 -9.17188c3.84473 -3.61621 6.72949 -8.80664 8.65137 -15.5762l-16.9043 -4.04004
c-0.999023 4.38477 -3.08691 7.8457 -6.25977 10.3857c-3.17285 2.53809 -7.02734 3.80762 -11.5664 3.80762c-6.26953 0 -11.3555 -2.25098 -15.2598 -6.75293c-3.90332 -4.49902 -5.85547 -11.7881 -5.85547 -21.8633c0 -10.6914 1.92285 -18.3086 5.76953 -22.8477
c3.8457 -4.53613 8.84473 -6.80566 14.998 -6.80566c4.53906 0 8.44336 1.44238 11.7119 4.32715c3.26953 2.88281 5.61523 7.42285 7.04004 13.6152zM215.434 197.499c7.48047 -7.72949 11.2207 -18.4775 11.2207 -32.2471c0 -13.6543 -3.71191 -24.3369 -11.1328 -32.0488
c-7.4248 -7.71289 -17.3477 -11.5674 -29.7705 -11.5674c-12.5762 0 -22.5781 3.83691 -30.002 11.5107c-7.4209 7.67188 -11.1328 18.2393 -11.1328 31.7012c0 8.61523 1.28711 15.8457 3.86426 21.6914c1.9248 4.30762 4.54883 8.1748 7.87695 11.5957
c3.3252 3.42383 6.9707 5.96191 10.9316 7.61621c5.26953 2.23047 11.3447 3.34473 18.2295 3.34473c12.4639 0 22.4326 -3.86426 29.915 -11.5967zM202.452 143.586c4.36621 4.9043 6.54688 12.2588 6.54688 22.0684c0 9.69043 -2.12402 16.9229 -6.375 21.6904
c-4.24902 4.77148 -9.89258 7.15625 -16.9326 7.15625c-7.03711 0 -12.7109 -2.41504 -17.0195 -7.24219c-4.30664 -4.82715 -6.46094 -12.1055 -6.46094 -21.8369c0 -9.57715 2.21289 -16.8359 6.63574 -21.7793c4.42285 -4.94043 10.0381 -7.41113 16.8447 -7.41113
c6.80859 0 12.3965 2.45117 16.7607 7.35449z" />
    <glyph glyph-name="uniF108" unicode="&#xf108;" 
d="M430.644 280.896c7.22168 -7.22168 7.22168 -18.5908 0 -25.8125c-6.97754 -6.97754 -18.5908 -6.97754 -25.5518 0l-130.884 130.883v-431.912c0 -10.0674 -8.00195 -18.0703 -18.0693 -18.0703c-10.0684 0 -18.3311 8.00293 -18.3311 18.0703v431.929
l-130.622 -130.883c-7.22168 -6.97754 -18.8516 -6.97754 -25.8125 0c-7.22168 7.22168 -7.22168 18.5908 0 25.8115l161.867 161.868c6.97754 6.97754 18.5908 6.97754 25.5518 0z" />
    <glyph glyph-name="uniF10A" unicode="&#xf10a;" 
d="M167.009 366.568c7.21777 7.21777 18.582 7.21777 25.7998 0c6.97461 -6.97461 6.97461 -18.582 0 -25.54l-130.82 -130.82h431.69c10.0625 0 18.3213 -7.99902 18.3213 -18.0615c0 -10.0635 -8.25879 -18.3223 -18.3213 -18.3223h-431.69l130.82 -130.576
c6.97461 -7.21875 6.97461 -18.8418 0 -25.7998c-7.21777 -7.21875 -18.582 -7.21875 -25.7998 0l-161.79 161.79c-6.97461 6.97461 -6.97461 18.582 0 25.54z" />
  </font>
</defs></svg>
